{
    "host": "https://numerique.memo.fresque.earth",
    "gitlab": {
        "base_url": "https://framagit.org/",
        "repo": "memo-fresques/fresque-du-numerique",
        "branch": "main",
        "project_id": 89674
    },
    "contact": "contact@fresquedunumerique.org",
    "title": {
        "fr-FR": "Memo Fresque du Numérique"
    },
    "author": "Fresque du numérique",
    "description": {
        "fr-FR": "Mémo de la Fresque du numérique - Les cartes pour comprendre"
    },
    "fresk-label": {
        "fr-FR": "Fresque du numérique",
        "de-DE": "Das Puzzle der Digitalisierung",
        "en-GB": "The Digital Collage",
        "es-ES": "El Mural del Digital"
    },
    "matomo": {
        "enabled": true,
        "host": "https://stats.fresquedunumerique.org/",
        "siteId": 3
    },
    "memo": {
        "version": "1.9.0"
    }
}