[
    {
        "pdfpage": 5,
        "cardid": "A",
        "side": "front",
        "options": {
            "crop": {
                "x": 14.6    ,
                "y": 14.6,
                "width": 418.7,
                "height": 296.8
            }
        }
    },
    {
        "pdfpage": 7,
        "cardid": "B",
        "side": "front",
        "options": {
            "crop": {
                "x": 14.6    ,
                "y": 14.6,
                "width": 418.7,
                "height": 296.8
            }
        }
    },
    {
        "pdfpage": 9,
        "cardid": "C",
        "side": "front",
        "options": {
            "crop": {
                "x": 14.6    ,
                "y": 14.6,
                "width": 418.7,
                "height": 296.8
            }
        }
    },
    {
        "pdfpage": 11,
        "cardid": "D",
        "side": "front",
        "options": {
            "crop": {
                "x": 14.6    ,
                "y": 14.6,
                "width": 418.7,
                "height": 296.8
            }
        }
    },
    {
        "pdfpage": 13,
        "cardid": "E",
        "side": "front",
        "options": {
            "crop": {
                "x": 14.6    ,
                "y": 14.6,
                "width": 418.7,
                "height": 296.8
            }
        }
    },
    {
        "pdfpage": 6,
        "cardid": "A",
        "side": "back",
        "options": {
            "crop": {
                "x": 14.6    ,
                "y": 14.6,
                "width": 418.7,
                "height": 296.8
            }
        }
    },
    {
        "pdfpage": 8,
        "cardid": "B",
        "side": "back",
        "options": {
            "crop": {
                "x": 14.6    ,
                "y": 14.6,
                "width": 418.7,
                "height": 296.8
            }
        }
    },
    {
        "pdfpage": 10,
        "cardid": "C",
        "side": "back",
        "options": {
            "crop": {
                "x": 14.6    ,
                "y": 14.6,
                "width": 418.7,
                "height": 296.8
            }
        }
    },
    {
        "pdfpage": 12,
        "cardid": "D",
        "side": "back",
        "options": {
            "crop": {
                "x": 14.6    ,
                "y": 14.6,
                "width": 418.7,
                "height": 296.8
            }
        }
    },
    {
        "pdfpage": 14,
        "cardid": "E",
        "side": "back",
        "options": {
            "crop": {
                "x": 14.6    ,
                "y": 14.6,
                "width": 418.7,
                "height": 296.8
            }
        }
    },
    {
    "pdfpage": 15,
    "cardid": "1",
    "side": "front",
    "options": {
        "crop": {
            "x": 14.6,
            "y": 14.6,
            "width": 418.7,
            "height": 296.8
        }
    }
}, {
    "pdfpage": 16,
    "cardid": "1",
    "side": "back",
    "options": {
        "crop": {
            "x": 14.6,
            "y": 14.6,
            "width": 418.7,
            "height": 296.8
        }
    }
}, {
    "pdfpage": 17,
    "cardid": "2",
    "side": "front",
    "options": {
        "crop": {
            "x": 14.6,
            "y": 14.6,
            "width": 418.7,
            "height": 296.8
        }
    }
}, {
    "pdfpage": 18,
    "cardid": "2",
    "side": "back",
    "options": {
        "crop": {
            "x": 14.6,
            "y": 14.6,
            "width": 418.7,
            "height": 296.8
        }
    }
}, {
    "pdfpage": 19,
    "cardid": "3",
    "side": "front",
    "options": {
        "crop": {
            "x": 14.6,
            "y": 14.6,
            "width": 418.7,
            "height": 296.8
        }
    }
}, {
    "pdfpage": 20,
    "cardid": "3",
    "side": "back",
    "options": {
        "crop": {
            "x": 14.6,
            "y": 14.6,
            "width": 418.7,
            "height": 296.8
        }
    }
}, {
    "pdfpage": 21,
    "cardid": "4",
    "side": "front",
    "options": {
        "crop": {
            "x": 14.6,
            "y": 14.6,
            "width": 418.7,
            "height": 296.8
        }
    }
}, {
    "pdfpage": 22,
    "cardid": "4",
    "side": "back",
    "options": {
        "crop": {
            "x": 14.6,
            "y": 14.6,
            "width": 418.7,
            "height": 296.8
        }
    }
}, {
    "pdfpage": 23,
    "cardid": "5",
    "side": "front",
    "options": {
        "crop": {
            "x": 14.6,
            "y": 14.6,
            "width": 418.7,
            "height": 296.8
        }
    }
}, {
    "pdfpage": 24,
    "cardid": "5",
    "side": "back",
    "options": {
        "crop": {
            "x": 14.6,
            "y": 14.6,
            "width": 418.7,
            "height": 296.8
        }
    }
}, {
    "pdfpage": 25,
    "cardid": "6",
    "side": "front",
    "options": {
        "crop": {
            "x": 14.6,
            "y": 14.6,
            "width": 418.7,
            "height": 296.8
        }
    }
}, {
    "pdfpage": 26,
    "cardid": "6",
    "side": "back",
    "options": {
        "crop": {
            "x": 14.6,
            "y": 14.6,
            "width": 418.7,
            "height": 296.8
        }
    }
}, {
    "pdfpage": 27,
    "cardid": "7",
    "side": "front",
    "options": {
        "crop": {
            "x": 14.6,
            "y": 14.6,
            "width": 418.7,
            "height": 296.8
        }
    }
}, {
    "pdfpage": 28,
    "cardid": "7",
    "side": "back",
    "options": {
        "crop": {
            "x": 14.6,
            "y": 14.6,
            "width": 418.7,
            "height": 296.8
        }
    }
}, {
    "pdfpage": 29,
    "cardid": "8",
    "side": "front",
    "options": {
        "crop": {
            "x": 14.6,
            "y": 14.6,
            "width": 418.7,
            "height": 296.8
        }
    }
}, {
    "pdfpage": 30,
    "cardid": "8",
    "side": "back",
    "options": {
        "crop": {
            "x": 14.6,
            "y": 14.6,
            "width": 418.7,
            "height": 296.8
        }
    }
}, {
    "pdfpage": 31,
    "cardid": "9",
    "side": "front",
    "options": {
        "crop": {
            "x": 14.6,
            "y": 14.6,
            "width": 418.7,
            "height": 296.8
        }
    }
}, {
    "pdfpage": 32,
    "cardid": "9",
    "side": "back",
    "options": {
        "crop": {
            "x": 14.6,
            "y": 14.6,
            "width": 418.7,
            "height": 296.8
        }
    }
}, {
    "pdfpage": 33,
    "cardid": "10",
    "side": "front",
    "options": {
        "crop": {
            "x": 14.6,
            "y": 14.6,
            "width": 418.7,
            "height": 296.8
        }
    }
}, {
    "pdfpage": 34,
    "cardid": "10",
    "side": "back",
    "options": {
        "crop": {
            "x": 14.6,
            "y": 14.6,
            "width": 418.7,
            "height": 296.8
        }
    }
}, {
    "pdfpage": 35,
    "cardid": "11",
    "side": "front",
    "options": {
        "crop": {
            "x": 14.6,
            "y": 14.6,
            "width": 418.7,
            "height": 296.8
        }
    }
}, {
    "pdfpage": 36,
    "cardid": "11",
    "side": "back",
    "options": {
        "crop": {
            "x": 14.6,
            "y": 14.6,
            "width": 418.7,
            "height": 296.8
        }
    }
}, {
    "pdfpage": 37,
    "cardid": "12",
    "side": "front",
    "options": {
        "crop": {
            "x": 14.6,
            "y": 14.6,
            "width": 418.7,
            "height": 296.8
        }
    }
}, {
    "pdfpage": 38,
    "cardid": "12",
    "side": "back",
    "options": {
        "crop": {
            "x": 14.6,
            "y": 14.6,
            "width": 418.7,
            "height": 296.8
        }
    }
}, {
    "pdfpage": 39,
    "cardid": "13",
    "side": "front",
    "options": {
        "crop": {
            "x": 14.6,
            "y": 14.6,
            "width": 418.7,
            "height": 296.8
        }
    }
}, {
    "pdfpage": 40,
    "cardid": "13",
    "side": "back",
    "options": {
        "crop": {
            "x": 14.6,
            "y": 14.6,
            "width": 418.7,
            "height": 296.8
        }
    }
}, {
    "pdfpage": 41,
    "cardid": "14",
    "side": "front",
    "options": {
        "crop": {
            "x": 14.6,
            "y": 14.6,
            "width": 418.7,
            "height": 296.8
        }
    }
}, {
    "pdfpage": 42,
    "cardid": "14",
    "side": "back",
    "options": {
        "crop": {
            "x": 14.6,
            "y": 14.6,
            "width": 418.7,
            "height": 296.8
        }
    }
}, {
    "pdfpage": 43,
    "cardid": "15",
    "side": "front",
    "options": {
        "crop": {
            "x": 14.6,
            "y": 14.6,
            "width": 418.7,
            "height": 296.8
        }
    }
}, {
    "pdfpage": 44,
    "cardid": "15",
    "side": "back",
    "options": {
        "crop": {
            "x": 14.6,
            "y": 14.6,
            "width": 418.7,
            "height": 296.8
        }
    }
}, {
    "pdfpage": 45,
    "cardid": "16",
    "side": "front",
    "options": {
        "crop": {
            "x": 14.6,
            "y": 14.6,
            "width": 418.7,
            "height": 296.8
        }
    }
}, {
    "pdfpage": 46,
    "cardid": "16",
    "side": "back",
    "options": {
        "crop": {
            "x": 14.6,
            "y": 14.6,
            "width": 418.7,
            "height": 296.8
        }
    }
}, {
    "pdfpage": 47,
    "cardid": "17",
    "side": "front",
    "options": {
        "crop": {
            "x": 14.6,
            "y": 14.6,
            "width": 418.7,
            "height": 296.8
        }
    }
}, {
    "pdfpage": 48,
    "cardid": "17",
    "side": "back",
    "options": {
        "crop": {
            "x": 14.6,
            "y": 14.6,
            "width": 418.7,
            "height": 296.8
        }
    }
}, {
    "pdfpage": 49,
    "cardid": "18",
    "side": "front",
    "options": {
        "crop": {
            "x": 14.6,
            "y": 14.6,
            "width": 418.7,
            "height": 296.8
        }
    }
}, {
    "pdfpage": 50,
    "cardid": "18",
    "side": "back",
    "options": {
        "crop": {
            "x": 14.6,
            "y": 14.6,
            "width": 418.7,
            "height": 296.8
        }
    }
}, {
    "pdfpage": 51,
    "cardid": "19",
    "side": "front",
    "options": {
        "crop": {
            "x": 14.6,
            "y": 14.6,
            "width": 418.7,
            "height": 296.8
        }
    }
}, {
    "pdfpage": 52,
    "cardid": "19",
    "side": "back",
    "options": {
        "crop": {
            "x": 14.6,
            "y": 14.6,
            "width": 418.7,
            "height": 296.8
        }
    }
}, {
    "pdfpage": 53,
    "cardid": "20",
    "side": "front",
    "options": {
        "crop": {
            "x": 14.6,
            "y": 14.6,
            "width": 418.7,
            "height": 296.8
        }
    }
}, {
    "pdfpage": 54,
    "cardid": "20",
    "side": "back",
    "options": {
        "crop": {
            "x": 14.6,
            "y": 14.6,
            "width": 418.7,
            "height": 296.8
        }
    }
}, {
    "pdfpage": 55,
    "cardid": "21",
    "side": "front",
    "options": {
        "crop": {
            "x": 14.6,
            "y": 14.6,
            "width": 418.7,
            "height": 296.8
        }
    }
}, {
    "pdfpage": 56,
    "cardid": "21",
    "side": "back",
    "options": {
        "crop": {
            "x": 14.6,
            "y": 14.6,
            "width": 418.7,
            "height": 296.8
        }
    }
}, {
    "pdfpage": 57,
    "cardid": "22",
    "side": "front",
    "options": {
        "crop": {
            "x": 14.6,
            "y": 14.6,
            "width": 418.7,
            "height": 296.8
        }
    }
}, {
    "pdfpage": 58,
    "cardid": "22",
    "side": "back",
    "options": {
        "crop": {
            "x": 14.6,
            "y": 14.6,
            "width": 418.7,
            "height": 296.8
        }
    }
}, {
    "pdfpage": 59,
    "cardid": "23",
    "side": "front",
    "options": {
        "crop": {
            "x": 14.6,
            "y": 14.6,
            "width": 418.7,
            "height": 296.8
        }
    }
}, {
    "pdfpage": 60,
    "cardid": "23",
    "side": "back",
    "options": {
        "crop": {
            "x": 14.6,
            "y": 14.6,
            "width": 418.7,
            "height": 296.8
        }
    }
}, {
    "pdfpage": 61,
    "cardid": "24",
    "side": "front",
    "options": {
        "crop": {
            "x": 14.6,
            "y": 14.6,
            "width": 418.7,
            "height": 296.8
        }
    }
}, {
    "pdfpage": 62,
    "cardid": "24",
    "side": "back",
    "options": {
        "crop": {
            "x": 14.6,
            "y": 14.6,
            "width": 418.7,
            "height": 296.8
        }
    }
}, {
    "pdfpage": 63,
    "cardid": "25",
    "side": "front",
    "options": {
        "crop": {
            "x": 14.6,
            "y": 14.6,
            "width": 418.7,
            "height": 296.8
        }
    }
}, {
    "pdfpage": 64,
    "cardid": "25",
    "side": "back",
    "options": {
        "crop": {
            "x": 14.6,
            "y": 14.6,
            "width": 418.7,
            "height": 296.8
        }
    }
}, {
    "pdfpage": 65,
    "cardid": "26",
    "side": "front",
    "options": {
        "crop": {
            "x": 14.6,
            "y": 14.6,
            "width": 418.7,
            "height": 296.8
        }
    }
}, {
    "pdfpage": 66,
    "cardid": "26",
    "side": "back",
    "options": {
        "crop": {
            "x": 14.6,
            "y": 14.6,
            "width": 418.7,
            "height": 296.8
        }
    }
}, {
    "pdfpage": 67,
    "cardid": "27",
    "side": "front",
    "options": {
        "crop": {
            "x": 14.6,
            "y": 14.6,
            "width": 418.7,
            "height": 296.8
        }
    }
}, {
    "pdfpage": 68,
    "cardid": "27",
    "side": "back",
    "options": {
        "crop": {
            "x": 14.6,
            "y": 14.6,
            "width": 418.7,
            "height": 296.8
        }
    }
}, {
    "pdfpage": 69,
    "cardid": "28",
    "side": "front",
    "options": {
        "crop": {
            "x": 14.6,
            "y": 14.6,
            "width": 418.7,
            "height": 296.8
        }
    }
}, {
    "pdfpage": 70,
    "cardid": "28",
    "side": "back",
    "options": {
        "crop": {
            "x": 14.6,
            "y": 14.6,
            "width": 418.7,
            "height": 296.8
        }
    }
}, {
    "pdfpage": 71,
    "cardid": "29",
    "side": "front",
    "options": {
        "crop": {
            "x": 14.6,
            "y": 14.6,
            "width": 418.7,
            "height": 296.8
        }
    }
}, {
    "pdfpage": 72,
    "cardid": "29",
    "side": "back",
    "options": {
        "crop": {
            "x": 14.6,
            "y": 14.6,
            "width": 418.7,
            "height": 296.8
        }
    }
}, {
    "pdfpage": 73,
    "cardid": "30",
    "side": "front",
    "options": {
        "crop": {
            "x": 14.6,
            "y": 14.6,
            "width": 418.7,
            "height": 296.8
        }
    }
}, {
    "pdfpage": 74,
    "cardid": "30",
    "side": "back",
    "options": {
        "crop": {
            "x": 14.6,
            "y": 14.6,
            "width": 418.7,
            "height": 296.8
        }
    }
}, {
    "pdfpage": 75,
    "cardid": "31",
    "side": "front",
    "options": {
        "crop": {
            "x": 14.6,
            "y": 14.6,
            "width": 418.7,
            "height": 296.8
        }
    }
}, {
    "pdfpage": 76,
    "cardid": "31",
    "side": "back",
    "options": {
        "crop": {
            "x": 14.6,
            "y": 14.6,
            "width": 418.7,
            "height": 296.8
        }
    }
}, {
    "pdfpage": 77,
    "cardid": "32",
    "side": "front",
    "options": {
        "crop": {
            "x": 14.6,
            "y": 14.6,
            "width": 418.7,
            "height": 296.8
        }
    }
}, {
    "pdfpage": 78,
    "cardid": "32",
    "side": "back",
    "options": {
        "crop": {
            "x": 14.6,
            "y": 14.6,
            "width": 418.7,
            "height": 296.8
        }
    }
}, {
    "pdfpage": 79,
    "cardid": "33",
    "side": "front",
    "options": {
        "crop": {
            "x": 14.6,
            "y": 14.6,
            "width": 418.7,
            "height": 296.8
        }
    }
}, {
    "pdfpage": 80,
    "cardid": "33",
    "side": "back",
    "options": {
        "crop": {
            "x": 14.6,
            "y": 14.6,
            "width": 418.7,
            "height": 296.8
        }
    }
}, {
    "pdfpage": 81,
    "cardid": "34",
    "side": "front",
    "options": {
        "crop": {
            "x": 14.6,
            "y": 14.6,
            "width": 418.7,
            "height": 296.8
        }
    }
}, {
    "pdfpage": 82,
    "cardid": "34",
    "side": "back",
    "options": {
        "crop": {
            "x": 14.6,
            "y": 14.6,
            "width": 418.7,
            "height": 296.8
        }
    }
}, {
    "pdfpage": 83,
    "cardid": "35",
    "side": "front",
    "options": {
        "crop": {
            "x": 14.6,
            "y": 14.6,
            "width": 418.7,
            "height": 296.8
        }
    }
}, {
    "pdfpage": 84,
    "cardid": "35",
    "side": "back",
    "options": {
        "crop": {
            "x": 14.6,
            "y": 14.6,
            "width": 418.7,
            "height": 296.8
        }
    }
}, {
    "pdfpage": 85,
    "cardid": "36",
    "side": "front",
    "options": {
        "crop": {
            "x": 14.6,
            "y": 14.6,
            "width": 418.7,
            "height": 296.8
        }
    }
}, {
    "pdfpage": 86,
    "cardid": "36",
    "side": "back",
    "options": {
        "crop": {
            "x": 14.6,
            "y": 14.6,
            "width": 418.7,
            "height": 296.8
        }
    }
}, {
    "pdfpage": 87,
    "cardid": "S1",
    "side": "front",
    "options": {
        "crop": {
            "x": 14.6,
            "y": 14.6,
            "width": 418.7,
            "height": 296.8
        }
    }
}, {
    "pdfpage": 88,
    "cardid": "S1",
    "side": "back",
    "options": {
        "crop": {
            "x": 14.6,
            "y": 14.6,
            "width": 418.7,
            "height": 296.8
        }
    }
}, {
    "pdfpage": 89,
    "cardid": "S2",
    "side": "front",
    "options": {
        "crop": {
            "x": 14.6,
            "y": 14.6,
            "width": 418.7,
            "height": 296.8
        }
    }
}, {
    "pdfpage": 90,
    "cardid": "S2",
    "side": "back",
    "options": {
        "crop": {
            "x": 14.6,
            "y": 14.6,
            "width": 418.7,
            "height": 296.8
        }
    }
}, {
    "pdfpage": 91,
    "cardid": "S3",
    "side": "front",
    "options": {
        "crop": {
            "x": 14.6,
            "y": 14.6,
            "width": 418.7,
            "height": 296.8
        }
    }
}, {
    "pdfpage": 92,
    "cardid": "S3",
    "side": "back",
    "options": {
        "crop": {
            "x": 14.6,
            "y": 14.6,
            "width": 418.7,
            "height": 296.8
        }
    }
}, {
    "pdfpage": 93,
    "cardid": "S4",
    "side": "front",
    "options": {
        "crop": {
            "x": 14.6,
            "y": 14.6,
            "width": 418.7,
            "height": 296.8
        }
    }
}, {
    "pdfpage": 94,
    "cardid": "S4",
    "side": "back",
    "options": {
        "crop": {
            "x": 14.6,
            "y": 14.6,
            "width": 418.7,
            "height": 296.8
        }
    }
}, {
    "pdfpage": 95,
    "cardid": "S5",
    "side": "front",
    "options": {
        "crop": {
            "x": 14.6,
            "y": 14.6,
            "width": 418.7,
            "height": 296.8
        }
    }
}, {
    "pdfpage": 96,
    "cardid": "S5",
    "side": "back",
    "options": {
        "crop": {
            "x": 14.6,
            "y": 14.6,
            "width": 418.7,
            "height": 296.8
        }
    }
}, {
    "pdfpage": 97,
    "cardid": "S6_v2.2",
    "side": "front",
    "options": {
        "crop": {
            "x": 14.6,
            "y": 14.6,
            "width": 418.7,
            "height": 296.8
        }
    }
}, {
    "pdfpage": 98,
    "cardid": "S6_v2.2",
    "side": "back",
    "options": {
        "crop": {
            "x": 14.6,
            "y": 14.6,
            "width": 418.7,
            "height": 296.8
        }
    }
}, {
    "pdfpage": 99,
    "cardid": "S7",
    "side": "front",
    "options": {
        "crop": {
            "x": 14.6,
            "y": 14.6,
            "width": 418.7,
            "height": 296.8
        }
    }
}, {
    "pdfpage": 100,
    "cardid": "S7",
    "side": "back",
    "options": {
        "crop": {
            "x": 14.6,
            "y": 14.6,
            "width": 418.7,
            "height": 296.8
        }
    }
}, {
    "pdfpage": 101,
    "cardid": "S8",
    "side": "front",
    "options": {
        "crop": {
            "x": 14.6,
            "y": 14.6,
            "width": 418.7,
            "height": 296.8
        }
    }
}, {
    "pdfpage": 102,
    "cardid": "S8",
    "side": "back",
    "options": {
        "crop": {
            "x": 14.6,
            "y": 14.6,
            "width": 418.7,
            "height": 296.8
        }
    }
}, {
    "pdfpage": 103,
    "cardid": "S9_v2.2",
    "side": "front",
    "options": {
        "crop": {
            "x": 14.6,
            "y": 14.6,
            "width": 418.7,
            "height": 296.8
        }
    }
}, {
    "pdfpage": 104,
    "cardid": "S9_v2.2",
    "side": "back",
    "options": {
        "crop": {
            "x": 14.6,
            "y": 14.6,
            "width": 418.7,
            "height": 296.8
        }
    }
}, {
    "pdfpage": 105,
    "cardid": "S10",
    "side": "front",
    "options": {
        "crop": {
            "x": 14.6,
            "y": 14.6,
            "width": 418.7,
            "height": 296.8
        }
    }
}, {
    "pdfpage": 106,
    "cardid": "S10",
    "side": "back",
    "options": {
        "crop": {
            "x": 14.6,
            "y": 14.6,
            "width": 418.7,
            "height": 296.8
        }
    }
}, {
    "pdfpage": 107,
    "cardid": "S11",
    "side": "front",
    "options": {
        "crop": {
            "x": 14.6,
            "y": 14.6,
            "width": 418.7,
            "height": 296.8
        }
    }
}, {
    "pdfpage": 108,
    "cardid": "S11",
    "side": "back",
    "options": {
        "crop": {
            "x": 14.6,
            "y": 14.6,
            "width": 418.7,
            "height": 296.8
        }
    }
}, {
    "pdfpage": 109,
    "cardid": "S12",
    "side": "front",
    "options": {
        "crop": {
            "x": 14.6,
            "y": 14.6,
            "width": 418.7,
            "height": 296.8
        }
    }
}, {
    "pdfpage": 110,
    "cardid": "S12",
    "side": "back",
    "options": {
        "crop": {
            "x": 14.6,
            "y": 14.6,
            "width": 418.7,
            "height": 296.8
        }
    }
}, {
    "pdfpage": 111,
    "cardid": "S13",
    "side": "front",
    "options": {
        "crop": {
            "x": 14.6,
            "y": 14.6,
            "width": 418.7,
            "height": 296.8
        }
    }
}, {
    "pdfpage": 112,
    "cardid": "S13",
    "side": "back",
    "options": {
        "crop": {
            "x": 14.6,
            "y": 14.6,
            "width": 418.7,
            "height": 296.8
        }
    }
}, {
    "pdfpage": 113,
    "cardid": "S14",
    "side": "front",
    "options": {
        "crop": {
            "x": 14.6,
            "y": 14.6,
            "width": 418.7,
            "height": 296.8
        }
    }
}, {
    "pdfpage": 114,
    "cardid": "S14",
    "side": "back",
    "options": {
        "crop": {
            "x": 14.6,
            "y": 14.6,
            "width": 418.7,
            "height": 296.8
        }
    }
}, {
    "pdfpage": 115,
    "cardid": "S15",
    "side": "front",
    "options": {
        "crop": {
            "x": 14.6,
            "y": 14.6,
            "width": 418.7,
            "height": 296.8
        }
    }
}, {
    "pdfpage": 116,
    "cardid": "S15",
    "side": "back",
    "options": {
        "crop": {
            "x": 14.6,
            "y": 14.6,
            "width": 418.7,
            "height": 296.8
        }
    }
}, {
    "pdfpage": 117,
    "cardid": "S16",
    "side": "front",
    "options": {
        "crop": {
            "x": 14.6,
            "y": 14.6,
            "width": 418.7,
            "height": 296.8
        }
    }
}, {
    "pdfpage": 118,
    "cardid": "S16",
    "side": "back",
    "options": {
        "crop": {
            "x": 14.6,
            "y": 14.6,
            "width": 418.7,
            "height": 296.8
        }
    }
}, {
    "pdfpage": 119,
    "cardid": "S17",
    "side": "front",
    "options": {
        "crop": {
            "x": 14.6,
            "y": 14.6,
            "width": 418.7,
            "height": 296.8
        }
    }
}, {
    "pdfpage": 120,
    "cardid": "S17",
    "side": "back",
    "options": {
        "crop": {
            "x": 14.6,
            "y": 14.6,
            "width": 418.7,
            "height": 296.8
        }
    }
}, {
    "pdfpage": 121,
    "cardid": "S18",
    "side": "front",
    "options": {
        "crop": {
            "x": 14.6,
            "y": 14.6,
            "width": 418.7,
            "height": 296.8
        }
    }
}, {
    "pdfpage": 122,
    "cardid": "S18",
    "side": "back",
    "options": {
        "crop": {
            "x": 14.6,
            "y": 14.6,
            "width": 418.7,
            "height": 296.8
        }
    }
}, {
    "pdfpage": 123,
    "cardid": "S19",
    "side": "front",
    "options": {
        "crop": {
            "x": 14.6,
            "y": 14.6,
            "width": 418.7,
            "height": 296.8
        }
    }
}, {
    "pdfpage": 124,
    "cardid": "S19",
    "side": "back",
    "options": {
        "crop": {
            "x": 14.6,
            "y": 14.6,
            "width": 418.7,
            "height": 296.8
        }
    }
}, {
    "pdfpage": 125,
    "cardid": "S20",
    "side": "front",
    "options": {
        "crop": {
            "x": 14.6,
            "y": 14.6,
            "width": 418.7,
            "height": 296.8
        }
    }
}, {
    "pdfpage": 126,
    "cardid": "S20",
    "side": "back",
    "options": {
        "crop": {
            "x": 14.6,
            "y": 14.6,
            "width": 418.7,
            "height": 296.8
        }
    }
}, {
    "pdfpage": 127,
    "cardid": "S21",
    "side": "front",
    "options": {
        "crop": {
            "x": 14.6,
            "y": 14.6,
            "width": 418.7,
            "height": 296.8
        }
    }
}, {
    "pdfpage": 128,
    "cardid": "S21",
    "side": "back",
    "options": {
        "crop": {
            "x": 14.6,
            "y": 14.6,
            "width": 418.7,
            "height": 296.8
        }
    }
}
]